^C:\USERS\USER\DESKTOP\MATAM\FATHER\DEBUG\MAIN.OBJ|C:\USERS\USER\DESKTOP\MATAM\FATHER\DEBUG\TASK.OBJ
C:\USERS\USER\DESKTOP\MATAM\DEBUG\FATHER.EXE
C:\USERS\USER\DESKTOP\MATAM\DEBUG\FATHER.ILK
C:\USERS\USER\DESKTOP\MATAM\DEBUG\FATHER.PDB
^C:\USERS\USER\DOCUMENTS\MATAM1\MATAM1-MASTER\FATHER\DEBUG\MAIN.OBJ|C:\USERS\USER\DOCUMENTS\MATAM1\MATAM1-MASTER\FATHER\DEBUG\TASK.OBJ
C:\USERS\USER\DOCUMENTS\MATAM1\MATAM1-MASTER\DEBUG\FATHER.EXE
C:\USERS\USER\DOCUMENTS\MATAM1\MATAM1-MASTER\DEBUG\FATHER.ILK
C:\USERS\USER\DOCUMENTS\MATAM1\MATAM1-MASTER\DEBUG\FATHER.PDB
